{
  "burst": "49,46,32,26368,26032,21457,29983,30340,20914,31361,12289,28798,23475,65306,10,32,32,32,45,32,20197,33394,21015,19982,24052,21202,26031,22374,20234,26031,20848,25269,25239,36816,21160,65288,21704,39532,26031,65289,20043,38388,30340,20914,31361,25345,32493,65292,20197,33394,21015,22269,23478,23433,20840,39038,38382,34920,31034,25919,24220,19981,20250,20197,32467,26463,20914,31361,20026,26465,20214,25442,21462,34987,25187,25276,20154,21592,33719,37322,12290,10,32,32,32,45,32,32654,22269,19982,33521,22269,34989,20987,20063,38376,22659,20869,49,51,20010,32993,22622,30446,26631,12290,10,32,32,32,45,32,20420,32599,26031,21035,23572,21733,32599,24503,24030,24030,38271,31216,35813,24030,20304,31062,37324,26449,36973,21040,20044,20891,30340,34989,20987,65292,23548,33268,49,20154,27515,20129,12289,57,20154,21463,20260,12290,10,32,32,32,45,32,20063,38376,32993,22622,27494,35013,22768,31216,20987,33853,31532,20845,26550,32654,77,81,45,57,26080,20154,26426,12290,10,10,50,46,32,36817,26399,21457,29983,26032,30340,20914,31361,12289,28798,23475,30340,27010,29575,65306,10,32,32,32,45,32,32771,34385,21040,20197,33394,21015,19982,21704,39532,26031,20043,38388,30340,32039,24352,20851,31995,65292,20197,21450,32654,22269,19982,20063,38376,32993,22622,27494,35013,30340,20914,31361,65292,36817,26399,21457,29983,26032,30340,20914,31361,25110,28798,23475,30340,27010,29575,36739,39640,12290,10,10,51,46,32,36817,26399,21407,26377,20914,31361,12289,28798,23475,32467,26463,12289,25764,20891,30340,27010,29575,65306,10,32,32,32,45,32,20197,33394,21015,25919,24220,34920,31034,19981,20250,20197,32467,26463,21152,27801,20914,31361,20026,26465,20214,65292,22240,27492,36817,26399,20914,31361,32467,26463,25110,25764,20891,30340,27010,29575,36739,20302,12290,10,32,32,32,45,32,32654,22269,19982,20063,38376,32993,22622,27494,35013,30340,20914,31361,20173,22312,32487,32493,65292,25764,20891,25110,20914,31361,32467,26463,30340,27010,29575,19981,26126,12290",
  "policy": "49,46,32,26368,26032,37329,34701,25919,31574,65306,10,32,32,32,45,32,22269,20869,36135,24065,25919,31574,26377,36827,19968,27493,23485,26494,30340,31354,38388,65292,20538,21048,20173,26377,36739,22909,30340,37197,32622,20215,20540,21644,20132,26131,26426,20250,12290,10,32,32,32,45,32,32654,32852,20648,23448,21592,34920,31034,36890,32960,26041,38754,21462,24471,20102,19968,20123,23454,36136,24615,36827,23637,65292,20445,30041,25152,26377,25919,31574,36873,39033,24456,37325,35201,12290,10,32,32,32,45,32,32654,32852,20648,23448,21592,21338,26031,33922,20811,34920,31034,65292,36890,32960,23558,38750,24120,32531,24930,22320,19979,38477,65292,32654,32852,20648,38656,35201,20445,25345,38480,21046,24615,31435,22330,12290,10,32,32,32,45,32,32654,32852,20648,23041,24265,22982,26031,34920,31034,65292,21152,24687,19981,26159,20182,30340,22522,32447,39044,26399,65292,39044,35745,36890,32960,29575,23558,22312,50,48,50,54,24180,21021,36798,21040,50,37,12290,10,10,50,46,32,21152,24687,38477,24687,27010,29575,65306,10,32,32,32,45,32,32654,32852,20648,23448,21592,21338,26031,33922,20811,19981,35748,20026,55,26376,20221,20250,38477,24687,65292,20294,22914,26524,26377,25968,25454,20316,35777,65292,21017,25345,24320,25918,24577,24230,12290,10,32,32,32,45,32,32654,32852,20648,23448,21592,23041,24265,22982,26031,34920,31034,65292,21152,24687,19981,26159,20182,30340,22522,32447,39044,26399,65292,39044,35745,36890,32960,29575,23558,22312,50,48,50,54,24180,21021,36798,21040,50,37,12290,10,32,32,32,45,32,32654,32852,20648,23448,21592,21338,26031,33922,20811,34920,31034,65292,31532,22235,23395,24230,21487,33021,26159,32654,32852,20648,38477,24687,30340,26102,26426,12290,10,10,51,46,32,36164,26412,24066,22330,36164,37329,38754,65306,10,32,32,32,45,32,32654,32852,20648,53,26376,50,57,26085,24403,21608,36148,29616,31383,36151,27454,20313,39069,21644,38134,34892,23450,26399,34701,36164,36151,27454,20313,39069,26377,25152,19979,38477,12290,10,32,32,32,45,32,32654,22269,20108,25163,25151,31614,32422,37327,36300,33267,22235,24180,20302,28857,65292,39640,21033,29575,25233,21046,36141,25151,27963,21160,12290,10,32,32,32,45,32,32654,22269,22269,20538,26399,36135,21319,33267,30424,20013,39640,28857,65292,21508,26399,38480,25910,30410,29575,19979,36300,50,45,52,20010,22522,28857,65292,26174,31034,20986,36164,37329,38754,30340,23485,26494,36857,35937,12290,10,10,52,46,32,37325,35201,32844,21153,21464,26356,65306,10,32,32,32,45,32,25991,26723,20013,27809,26377,25552,21450,20219,20309,37325,35201,32844,21153,30340,21464,26356,12290",
  "news": "38506,23457,22242,23459,24067,29305,26391,26222,22312,8220,23553,21475,36153,8221,26696,20013,30340,51,52,39033,37325,32618,25351,25511,25104,31435,13,10,32445,32422,19968,38506,23457,22242,23459,24067,29305,26391,26222,22312,8220,23553,21475,36153,8221,26696,20013,30340,51,52,39033,37325,32618,25351,25511,25104,31435,13,10,25140,23572,31185,25216,31532,19968,36130,23395,24635,33829,25910,39640,20110,39044,26399,32,20294,35843,25972,21518,36816,33829,21033,28070,19981,21450,39044,26399,13,10,33529,26524,35745,21010,23545,83,105,114,105,36827,34892,20840,38754,25913,38761,13,10,21704,39532,26031,65306,24895,22312,20197,33394,21015,20572,27490,36827,25915,21152,27801,24773,20917,19979,36798,25104,8220,20840,38754,21327,35758,8221,13,10,32654,32852,20648,23041,24265,22982,26031,65306,21152,24687,19981,26159,20182,30340,22522,32447,39044,26399,13,10,32654,32852,20648,23041,24265,22982,26031,65306,24182,19981,38656,35201,36890,32960,36798,21040,50,37,25165,38477,24687,13,10,32654,32852,20648,23041,24265,22982,26031,65306,26377,20805,20998,35777,25454,34920,26126,36135,24065,25919,31574,20855,26377,38480,21046,24615,13,10,26631,26222,53,48,48,25351,25968,21644,36947,25351,33258,21271,20140,26102,38388,50,50,58,52,49,24320,22987,26080,23454,26102,25253,20215,13,10,28040,24687,20154,22763,65306,27431,20329,20811,43,35752,35770,23558,33258,24895,20943,20135,25514,26045,32500,25345,21040,24180,24213,13,10,42,83,84,20013,25463,65306,25764,38144,36864,24066,39118,38505,35686,31034,32,21608,20116,20572,29260,19968,22825,13,10,84,67,76,31185,25216,65306,23376,20844,21496,84,67,76,20013,29615,25311,21442,19982,77,97,120,101,111,110,37325,32452,13,10,83,84,27704,24742,65306,33891,20107,38271,38472,32724,36766,32844,13,10,20013,22269,30707,27833,65306,21462,28040,32856,20219,26222,21326,27704,36947,20026,50,48,50,52,24180,24230,23457,35745,24072,30340,35758,26696,13,10,21271,21521,36164,37329,20170,26085,20928,20080,20837,49,48,46,52,53,20159,20803,32,20013,22269,38109,19994,33719,20928,20080,20837,50,46,55,52,20159,20803,13,10,31077,37995,31185,25216,65306,23376,20844,21496,33719,39134,34892,27773,36710,39033,30446,23450,28857,24320,21457,32,39044,35745,38144,21806,24635,39069,54,48,48,48,19975,13,10,21830,21153,37096,31561,19977,37096,38376,21457,24067,20851,20110,23545,26377,20851,29289,39033,23454,26045,20986,21475,31649,21046,30340,20844,21578,13,10,39321,20892,33455,21019,65306,20840,36164,23376,20844,21496,32852,21512,21019,27888,25910,21040,65,77,68,32463,38144,21830,30830,35748,20989,13,10,19977,24180,20004,24230,26131,20027,32,19975,38534,20809,30005,23558,36814,8220,29275,25955,8221,20184,23567,38108,25509,25163,32,28322,20215,36229,51,48,37,13,10,38663,35029,31185,25216,65306,20840,36164,23376,20844,21496,25910,21040,34074,26469,31185,25216,21457,36865,30340,12298,23450,28857,36890,30693,20989,12299,24635,37329,39069,32422,20026,50,49,46,54,56,20159,20803,13,10,21407,22269,23478,20307,32946,24635,23616,23616,38271,33503,20210,25991,25509,21463,35843,26597,13,10,22806,20132,37096,65306,22914,26524,27431,26041,19968,24847,23396,34892,32,20013,26041,32477,19981,20250,22352,35270,19981,31649,32,23558,37319,21462,19968,20999,24517,35201,25514,26045,13,10,20309,31435,23792,22312,19978,28023,21644,27993,27743,35843,30740,26102,25351,20986,32,20805,20998,21457,25381,28023,36816,21644,38081,27700,32852,36816,20316,29992,32,21162,21147,20570,22909,22823,23447,21830,21697,36816,20648,24037,20316,13,10,24037,20449,37096,20462,25913,12298,30005,21160,33258,34892,36710,30005,27668,23433,20840,35201,27714,12299,32,25311,26032,22686,8220,30005,21160,33258,34892,36710,29992,20805,30005,22120,19981,24471,35774,35745,12289,21046,36896,21450,20351,29992,36710,36733,24418,24335,8221,13,10,20013,32654,22320,26041,27668,20505,34892,21160,39640,32423,21035,27963,21160,22312,32654,22269,21152,24030,20271,20811,21033,21484,24320,13,10,24037,20449,37096,21521,21271,20140,22269,30005,39640,31185,31185,25216,26377,38480,20844,21496,39041,21457,22825,21551,31995,21015,21355,26143,26143,24231,31354,38388,26080,32447,30005,19994,21153,35768,21487,13,10,20064,36817,24179,65306,25112,20105,19981,33021,20877,26080,38480,32487,32493,32,27491,20041,20063,19981,33021,27704,20037,32570,24109,32,8220,20004,22269,26041,26696,8221,26356,19981,33021,20219,24847,21160,25671,13,10,20064,36817,24179,65306,20013,26041,24895,21516,38463,26041,26500,24314,8220,20116,22823,21512,20316,26684,23616,8221,13,10,20064,36817,24179,65306,20013,26041,23558,20110,50,48,50,54,24180,22312,20013,22269,20030,21150,31532,20108,23626,20013,38463,23792,20250,13,10,20064,36817,24179,20986,24109,20013,22269,8212,38463,25289,20271,22269,23478,21512,20316,35770,22363,31532,21313,23626,37096,38271,32423,20250,35758,24320,24149,24335,24182,21457,34920,20027,26088,35762,35805,13,10,22830,34892,21103,34892,38271,38518,29618,65306,22823,21147,25903,25345,20013,23567,31185,25216,20225,19994,39318,36151,21644,37325,28857,39046,22495,22823,35268,27169,35774,22791,26356,26032,13,10,31454,20215,30475,40857,22836,13,10,19977,22823,25351,25968,38598,20307,20302,24320,13,10,22830,34892,20844,24320,24066,22330,20928,25237,25918,50,53,56,48,20159,20803,13,10,20013,20449,35777,21048,65306,33410,33021,38477,30899,34892,21160,26041,26696,33853,22320,32,24378,21270,37329,23646,20379,32473,32422,26463,13,10,33521,22269,35758,20250,23459,24067,27491,24335,35299,25955,13,10",
  "hot": "32,32,21326,26216,23431,35748,32564,50,48,19975,20837,32929,76,71,68,20998,37096,32,12290,13,10,21326,26216,23431,35748,32564,50,48,19975,20837,32929,76,71,68,20998,37096,12290,13,10,19968,20844,21496,25307,33891,31192,34987,26333,38656,35299,20915,32769,26495,29983,29702,38656,27714,12290,13,10,32,32,22659,22806,36164,26412,22823,20030,20080,20837,20013,22269,32929,31080,69,84,70,32,12290,13,10,22659,22806,36164,26412,22823,20030,20080,20837,20013,22269,32929,31080,69,84,70,12290,13,10,36149,24030,33541,21488,27599,49,48,32929,20998,32418,51,48,56,46,55,54,20803,12290,13,10,32,32,8220,29579,22920,8221,22604,25151,32972,21518,65306,34892,19994,20869,21333,20241,26222,36941,32,12290,13,10,26126,26143,22522,37329,32463,29702,38598,20307,36300,19979,31070,22363,12290,13,10"
}